EESchema Schematic File Version 2
LIBS:power
LIBS:device
LIBS:switches
LIBS:relays
LIBS:motors
LIBS:transistors
LIBS:conn
LIBS:linear
LIBS:regul
LIBS:74xx
LIBS:cmos4000
LIBS:adc-dac
LIBS:memory
LIBS:xilinx
LIBS:microcontrollers
LIBS:dsp
LIBS:microchip
LIBS:analog_switches
LIBS:motorola
LIBS:texas
LIBS:intel
LIBS:audio
LIBS:interface
LIBS:digital-audio
LIBS:philips
LIBS:display
LIBS:cypress
LIBS:siliconi
LIBS:opto
LIBS:atmel
LIBS:contrib
LIBS:valves
LIBS:project-cache
EELAYER 25 0
EELAYER END
$Descr A4 11693 8268
encoding utf-8
Sheet 1 1
Title ""
Date ""
Rev ""
Comp ""
Comment1 ""
Comment2 ""
Comment3 ""
Comment4 ""
$EndDescr
$Comp
L ATTINY85-20SU U1
U 1 1 5AFF9DB2
P 5550 3950
F 0 "U1" H 4400 4350 50  0000 C CNN
F 1 "ATTINY85-20SU" H 6550 3550 50  0000 C CNN
F 2 "Custom:SOIC-8_EIAJ" H 6500 3950 50  0001 C CIN
F 3 "" H 5550 3950 50  0001 C CNN
	1    5550 3950
	1    0    0    -1  
$EndComp
$Comp
L 2N7002 Q1
U 1 1 5AFF9E49
P 7500 4400
F 0 "Q1" H 7700 4475 50  0000 L CNN
F 1 "Si2302DS" H 7700 4400 50  0000 L CNN
F 2 "Custom:SOT-23" H 7700 4325 50  0001 L CIN
F 3 "" H 7500 4400 50  0001 L CNN
	1    7500 4400
	-1   0    0    -1  
$EndComp
$Comp
L GND #PWR01
U 1 1 5AFF9FD5
P 7550 4800
F 0 "#PWR01" H 7550 4550 50  0001 C CNN
F 1 "GND" H 7550 4650 50  0000 C CNN
F 2 "" H 7550 4800 50  0001 C CNN
F 3 "" H 7550 4800 50  0001 C CNN
	1    7550 4800
	1    0    0    -1  
$EndComp
$Comp
L R R1
U 1 1 5AFF9FF9
P 7700 4000
F 0 "R1" V 7780 4000 50  0000 C CNN
F 1 "10k" V 7700 4000 50  0000 C CNN
F 2 "Custom:R_0805" V 7630 4000 50  0001 C CNN
F 3 "" H 7700 4000 50  0001 C CNN
	1    7700 4000
	1    0    0    -1  
$EndComp
$Comp
L C C2
U 1 1 5AFFA09D
P 5550 3250
F 0 "C2" H 5575 3350 50  0000 L CNN
F 1 "100n" H 5575 3150 50  0000 L CNN
F 2 "Custom:C_0805" H 5588 3100 50  0001 C CNN
F 3 "" H 5550 3250 50  0001 C CNN
	1    5550 3250
	0    1    1    0   
$EndComp
$Comp
L C C1
U 1 1 5AFFA140
P 7100 3950
F 0 "C1" H 7125 4050 50  0000 L CNN
F 1 "100n" H 7125 3850 50  0000 L CNN
F 2 "Custom:C_0805" H 7138 3800 50  0001 C CNN
F 3 "" H 7100 3950 50  0001 C CNN
	1    7100 3950
	-1   0    0    1   
$EndComp
Wire Wire Line
	6900 3700 7700 3700
Wire Wire Line
	7100 3700 7100 3800
Wire Wire Line
	6900 4200 7400 4200
Wire Wire Line
	7100 4200 7100 4100
Connection ~ 7100 4200
Wire Wire Line
	7700 3700 7700 3850
Connection ~ 7100 3700
Wire Wire Line
	7700 4150 7700 4400
Connection ~ 7700 4400
Text Label 5250 3250 2    60   ~ 0
DTR
Text Label 7700 4400 0    60   ~ 0
RST
$Comp
L SW_Push SW1
U 1 1 5AFFA54E
P 7700 4600
F 0 "SW1" H 7750 4700 50  0000 L CNN
F 1 "Reset" H 7700 4540 50  0000 C CNN
F 2 "Custom:SW_Push" H 7700 4800 50  0001 C CNN
F 3 "" H 7700 4800 50  0001 C CNN
	1    7700 4600
	0    1    1    0   
$EndComp
Wire Wire Line
	7400 4600 7400 4800
Wire Wire Line
	7400 4800 7700 4800
Connection ~ 7550 4800
Text Label 5850 3250 0    60   ~ 0
RST
$Comp
L 2N7002 Q2
U 1 1 5AFFA7CB
P 5450 2750
F 0 "Q2" H 5650 2825 50  0000 L CNN
F 1 "2N7002" H 5650 2750 50  0000 L CNN
F 2 "Custom:SOT-23" H 5650 2675 50  0001 L CIN
F 3 "" H 5450 2750 50  0001 L CNN
	1    5450 2750
	0    -1   -1   0   
$EndComp
Wire Wire Line
	5450 2950 5250 2950
Text Label 5250 2950 2    60   ~ 0
RXI
Text Label 5250 2650 2    60   ~ 0
TXO
$Comp
L D D1
U 1 1 5AFFAA5D
P 5600 2950
F 0 "D1" H 5600 3050 50  0000 C CNN
F 1 "1N4148" H 5600 2850 50  0000 C CNN
F 2 "Custom:D_SOD-323" H 5600 2950 50  0001 C CNN
F 3 "" H 5600 2950 50  0001 C CNN
	1    5600 2950
	1    0    0    -1  
$EndComp
Wire Wire Line
	5650 2650 5750 2650
Wire Wire Line
	5750 2650 5750 2950
Wire Wire Line
	5750 2800 5850 2800
Connection ~ 5750 2800
Text Label 5850 2800 0    60   ~ 0
RxTx
Wire Wire Line
	5700 3250 5850 3250
Wire Wire Line
	5250 3250 5400 3250
$Comp
L VCC #PWR02
U 1 1 5AFFAC75
P 7400 3700
F 0 "#PWR02" H 7400 3550 50  0001 C CNN
F 1 "VCC" H 7400 3850 50  0000 C CNN
F 2 "" H 7400 3700 50  0001 C CNN
F 3 "" H 7400 3700 50  0001 C CNN
	1    7400 3700
	1    0    0    -1  
$EndComp
Text Label 4200 3700 2    60   ~ 0
B0
Text Label 4200 3800 2    60   ~ 0
B1
Text Label 4200 3900 2    60   ~ 0
B2
Text Label 4200 4000 2    60   ~ 0
B3
Text Label 4200 4100 2    60   ~ 0
B4
Text Label 4200 4200 2    60   ~ 0
B5
$Comp
L CP C6
U 1 1 5AFFAE44
P 6100 4850
F 0 "C6" H 6125 4950 50  0000 L CNN
F 1 "10u" H 6125 4750 50  0000 L CNN
F 2 "Custom:C_0805" H 6138 4700 50  0001 C CNN
F 3 "" H 6100 4850 50  0001 C CNN
	1    6100 4850
	1    0    0    -1  
$EndComp
$Comp
L R R2
U 1 1 5AFFB031
P 5750 2500
F 0 "R2" V 5830 2500 50  0000 C CNN
F 1 "4.7k" V 5750 2500 50  0000 C CNN
F 2 "Custom:R_0805" V 5680 2500 50  0001 C CNN
F 3 "" H 5750 2500 50  0001 C CNN
	1    5750 2500
	1    0    0    -1  
$EndComp
Connection ~ 5750 2650
$Comp
L VCC #PWR03
U 1 1 5AFFB0AF
P 5750 2350
F 0 "#PWR03" H 5750 2200 50  0001 C CNN
F 1 "VCC" H 5750 2500 50  0000 C CNN
F 2 "" H 5750 2350 50  0001 C CNN
F 3 "" H 5750 2350 50  0001 C CNN
	1    5750 2350
	1    0    0    -1  
$EndComp
$Comp
L MCP1703A-3302_SOT23 U2
U 1 1 5AFFB9CD
P 5500 4700
F 0 "U2" H 5350 4825 50  0000 C CNN
F 1 "XC6206" H 5500 4825 50  0000 L CNN
F 2 "Custom:SOT-23" H 5500 4900 50  0001 C CNN
F 3 "" H 5500 4650 50  0001 C CNN
	1    5500 4700
	1    0    0    -1  
$EndComp
$Comp
L CP C3
U 1 1 5AFFBBAB
P 4900 4850
F 0 "C3" H 4925 4950 50  0000 L CNN
F 1 "10u" H 4925 4750 50  0000 L CNN
F 2 "Custom:C_0805" H 4938 4700 50  0001 C CNN
F 3 "" H 4900 4850 50  0001 C CNN
	1    4900 4850
	-1   0    0    -1  
$EndComp
$Comp
L GND #PWR04
U 1 1 5AFFBC86
P 5500 5000
F 0 "#PWR04" H 5500 4750 50  0001 C CNN
F 1 "GND" H 5500 4850 50  0000 C CNN
F 2 "" H 5500 5000 50  0001 C CNN
F 3 "" H 5500 5000 50  0001 C CNN
	1    5500 5000
	1    0    0    -1  
$EndComp
$Comp
L VCC #PWR05
U 1 1 5AFFBD44
P 6250 4700
F 0 "#PWR05" H 6250 4550 50  0001 C CNN
F 1 "VCC" H 6250 4850 50  0000 C CNN
F 2 "" H 6250 4700 50  0001 C CNN
F 3 "" H 6250 4700 50  0001 C CNN
	1    6250 4700
	1    0    0    -1  
$EndComp
Text Label 4750 4700 2    60   ~ 0
RAW
Connection ~ 7400 3700
$Comp
L Conn_01x06 J1
U 1 1 5AFFBFCE
P 4450 2850
F 0 "J1" H 4450 3150 50  0000 C CNN
F 1 "UART" H 4450 2450 50  0000 C CNN
F 2 "Custom:Pin_Header_Angled_1x06_Pitch2.54mm" H 4450 2850 50  0001 C CNN
F 3 "" H 4450 2850 50  0001 C CNN
	1    4450 2850
	1    0    0    -1  
$EndComp
Text Label 4250 2650 2    60   ~ 0
DTR
Text Label 4250 2750 2    60   ~ 0
TXO
Text Label 4250 2850 2    60   ~ 0
RXI
Text Label 4250 2950 2    60   ~ 0
VCC
Text Label 4250 3050 2    60   ~ 0
GND
$Comp
L Conn_01x06 J2
U 1 1 5AFFC3E7
P 7700 2500
F 0 "J2" H 7700 2800 50  0000 C CNN
F 1 "Right" H 7700 2100 50  0000 C CNN
F 2 "Custom:Pin_Header_Straight_1x06_Pitch2.54mm" H 7700 2500 50  0001 C CNN
F 3 "" H 7700 2500 50  0001 C CNN
	1    7700 2500
	1    0    0    -1  
$EndComp
$Comp
L Conn_01x06 J3
U 1 1 5AFFC476
P 6750 2600
F 0 "J3" H 6750 2200 50  0000 C CNN
F 1 "Left" H 6750 2900 50  0000 C CNN
F 2 "Custom:Pin_Header_Straight_1x06_Pitch2.54mm" H 6750 2600 50  0001 C CNN
F 3 "" H 6750 2600 50  0001 C CNN
	1    6750 2600
	-1   0    0    1   
$EndComp
Text Label 7500 2700 2    60   ~ 0
B0
Text Label 7500 2600 2    60   ~ 0
B1
Text Label 7500 2500 2    60   ~ 0
B2
Text Label 7500 2400 2    60   ~ 0
VCC
Text Label 6950 2300 0    60   ~ 0
RST
Text Label 6950 2500 0    60   ~ 0
B3
Text Label 6950 2600 0    60   ~ 0
B4
Text Label 6950 2700 0    60   ~ 0
GND
Text Label 6950 2400 0    60   ~ 0
B5
Wire Wire Line
	6250 2500 6450 2500
Text Label 6250 2500 2    60   ~ 0
RxTx
Text Label 6450 2500 0    60   ~ 0
B5
$Comp
L Conn_01x04 J4
U 1 1 5AFFCEDD
P 7300 3250
F 0 "J4" H 7300 3450 50  0000 C CNN
F 1 "PWR" H 7300 2950 50  0000 C CNN
F 2 "Custom:Pin_Header_Angled_1x04_Pitch2.54mm" H 7300 3250 50  0001 C CNN
F 3 "" H 7300 3250 50  0001 C CNN
	1    7300 3250
	0    1    1    0   
$EndComp
Text Label 7500 2800 2    60   ~ 0
GND
Text Label 7500 2300 2    60   ~ 0
RAW
Text Label 7400 3050 1    60   ~ 0
VCC
Text Label 4250 3150 2    60   ~ 0
GND
Text Label 7100 3050 1    60   ~ 0
GND
Text Label 7200 3050 1    60   ~ 0
VCC
$Comp
L C C5
U 1 1 5AFFE02D
P 5900 4850
F 0 "C5" H 5925 4950 50  0000 L CNN
F 1 "1u" H 5925 4750 50  0000 L CNN
F 2 "Custom:C_0805" H 5938 4700 50  0001 C CNN
F 3 "" H 5900 4850 50  0001 C CNN
	1    5900 4850
	-1   0    0    1   
$EndComp
$Comp
L C C4
U 1 1 5AFFE1A6
P 5100 4850
F 0 "C4" H 5125 4950 50  0000 L CNN
F 1 "1u" H 5125 4750 50  0000 L CNN
F 2 "Custom:C_0805" H 5138 4700 50  0001 C CNN
F 3 "" H 5100 4850 50  0001 C CNN
	1    5100 4850
	1    0    0    1   
$EndComp
Wire Wire Line
	4750 4700 5200 4700
Connection ~ 4900 4700
Connection ~ 5100 4700
Wire Wire Line
	4900 5000 6100 5000
Connection ~ 5100 5000
Wire Wire Line
	5800 4700 6250 4700
Connection ~ 6100 4700
Connection ~ 5900 4700
Connection ~ 5500 5000
Connection ~ 5900 5000
Text Label 6950 2800 0    60   ~ 0
VCC
Text Label 7300 3050 1    60   ~ 0
GND
$EndSCHEMATC
