(module LED_0805 (layer F.Cu) (tedit 5B18A1BB)
  (attr smd)
  (fp_text reference D** (at 0 0 90) (layer F.SilkS)
    (effects (font (size 0.5 0.5) (thickness 0.1)))
  )
  (fp_text value LED_0805 (at 0 -1.27) (layer F.SilkS) hide
    (effects (font (size 0.5 0.5) (thickness 0.1)))
  )
  (fp_line (start 1 -0.625) (end 1 0.625) (layer F.Fab) (width 0.1))
  (fp_line (start -1 -0.625) (end -1 0.625) (layer F.Fab) (width 0.1))
  (fp_line (start -1 0.625) (end 1 0.625) (layer F.Fab) (width 0.1))
  (fp_line (start -1 -0.625) (end 1 -0.625) (layer F.Fab) (width 0.1))
  (fp_line (start -1.7145 -0.635) (end -1.7145 0.635) (layer F.SilkS) (width 0.1))
  (fp_line (start -1 0.625) (end 1 0.625) (layer F.SilkS) (width 0.1))
  (fp_line (start -1 -0.625) (end 1 -0.625) (layer F.SilkS) (width 0.1))
  (fp_line (start 0.2 0) (end 0.45 0) (layer F.Fab) (width 0.1))
  (fp_line (start 0.2 0.35) (end -0.3 0) (layer F.Fab) (width 0.1))
  (fp_line (start 0.2 -0.35) (end 0.2 0.35) (layer F.Fab) (width 0.1))
  (fp_line (start -0.3 0) (end 0.2 -0.35) (layer F.Fab) (width 0.1))
  (fp_line (start -0.3 0) (end -0.5 0) (layer F.Fab) (width 0.1))
  (fp_line (start -0.3 -0.35) (end -0.3 0.35) (layer F.Fab) (width 0.1))
  (pad 1 smd rect (at -1 0) (size 1 1.25) (layers F.Cu F.Paste F.Mask))
  (pad 2 smd rect (at 1 0) (size 1 1.25) (layers F.Cu F.Paste F.Mask))
  (model ${KISYS3DMOD}/LEDs.3dshapes/LED_0805.wrl
    (at (xyz -0.005 0 0))
    (scale (xyz 1 1 1))
    (rotate (xyz 0 0 0))
  )
)
